Speaking Simple Features
…
## $o
## # A tibble: 1 x 3
##            name st_sfc.st_linestring.cbind.xy_traverse..zz...    object_
## *        <fctr>                              <simple_feature>      <chr>
## 1 epic traverse                             <LINESTRINGZ(...> SWCWYcvzN5
## 
## $b
## # A tibble: 1 x 1
##      object_
##        <chr>
## 1 SWCWYcvzN5
## 
## $bXv
## # A tibble: 35 x 2
##    order_    vertex_
##     <int>      <chr>
##  1      1 LjsdwOVjwG
##  2      2 8giCc7VN3c
##  3      3 hNC6ndMGfn
##  4      4 Zd439utXnz
##  5      5 jMLBcZgDLi
##  6      6 sjLMT7aDjg
##  7      7 z16XKuQqE7
##  8      8 Zhqc0J3p6b
##  9      9 X0K0RvOcpQ
## 10     10 Ny0XcnxF0c
## # ... with 25 more rows
## 
## $v
## # A tibble: 35 x 4
##       x_    y_    z_    vertex_
##    <dbl> <dbl> <dbl>      <chr>
##  1 0.161 0.000   114 LjsdwOVjwG
##  2 0.186 0.029   120 8giCc7VN3c
##  3 0.202 0.037   122 hNC6ndMGfn
##  4 0.228 0.053   128 Zd439utXnz
##  5 0.252 0.053   130 jMLBcZgDLi
##  6 0.270 0.060   132 sjLMT7aDjg
##  7 0.285 0.094   138 z16XKuQqE7
##  8 0.292 0.121   142 Zhqc0J3p6b
##  9 0.309 0.155   146 X0K0RvOcpQ
## 10 0.349 0.200   146 Ny0XcnxF0c
## # ... with 25 more rows
## 
## attr(,"class")
## [1] "map_table" "list"
